﻿[
  {
    "p": {
      "identity": 2283,
      "labels": [
        "Person"
      ],
      "properties": {
        "name": "Lilly Wachowski",
        "born": 1967
      }
    },
    "m.title": "The Matrix"
  },
  {
    "p": {
      "identity": 2284,
      "labels": [
        "Person"
      ],
      "properties": {
        "name": "Lana Wachowski",
        "born": 1965
      }
    },
    "m.title": "The Matrix"
  },
  {
    "p": {
      "identity": 2283,
      "labels": [
        "Person"
      ],
      "properties": {
        "name": "Lilly Wachowski",
        "born": 1967
      }
    },
    "m.title": "The Matrix Reloaded"
  },
  {
    "p": {
      "identity": 2284,
      "labels": [
        "Person"
      ],
      "properties": {
        "name": "Lana Wachowski",
        "born": 1965
      }
    },
    "m.title": "The Matrix Reloaded"
  },
  {
    "p": {
      "identity": 2284,
      "labels": [
        "Person"
      ],
      "properties": {
        "name": "Lana Wachowski",
        "born": 1965
      }
    },
    "m.title": "The Matrix Revolutions"
  },
  {
    "p": {
      "identity": 2283,
      "labels": [
        "Person"
      ],
      "properties": {
        "name": "Lilly Wachowski",
        "born": 1967
      }
    },
    "m.title": "The Matrix Revolutions"
  },
  {
    "p": {
      "identity": 2292,
      "labels": [
        "Person"
      ],
      "properties": {
        "name": "Taylor Hackford",
        "born": 1944
      }
    },
    "m.title": "The Devil's Advocate"
  },
  {
    "p": {
      "identity": 2305,
      "labels": [
        "Person"
      ],
      "properties": {
        "name": "Rob Reiner",
        "born": 1947
      }
    },
    "m.title": "A Few Good Men"
  },
  {
    "p": {
      "identity": 2306,
      "labels": [
        "Person"
      ],
      "properties": {
        "name": "Aaron Sorkin",
        "born": 1961
      }
    },
    "m.title": "A Few Good Men"
  },
  {
    "p": {
      "identity": 2313,
      "labels": [
        "Person"
      ],
      "properties": {
        "name": "Tony Scott",
        "born": 1944
      }
    },
    "m.title": "Top Gun"
  },
  {
    "p": {
      "identity": 2314,
      "labels": [
        "Person"
      ],
      "properties": {
        "name": "Jim Cash",
        "born": 1941
      }
    },
    "m.title": "Top Gun"
  },
  {
    "p": {
      "identity": 2323,
      "labels": [
        "Person"
      ],
      "properties": {
        "name": "Cameron Crowe",
        "born": 1957
      }
    },
    "m.title": "Jerry Maguire"
  },
  {
    "p": {
      "identity": 2305,
      "labels": [
        "Person"
      ],
      "properties": {
        "name": "Rob Reiner",
        "born": 1947
      }
    },
    "m.title": "Stand By Me"
  },
  {
    "p": {
      "identity": 2333,
      "labels": [
        "Person"
      ],
      "properties": {
        "name": "James L. Brooks",
        "born": 1940
      }
    },
    "m.title": "As Good as It Gets"
  },
  {
    "p": {
      "identity": 2339,
      "labels": [
        "Person"
      ],
      "properties": {
        "name": "Vincent Ward",
        "born": 1956
      }
    },
    "m.title": "What Dreams May Come"
  },
  {
    "p": {
      "identity": 2344,
      "labels": [
        "Person"
      ],
      "properties": {
        "name": "Scott Hicks",
        "born": 1953
      }
    },
    "m.title": "Snow Falling on Cedars"
  },
  {
    "p": {
      "identity": 2350,
      "labels": [
        "Person"
      ],
      "properties": {
        "name": "Nora Ephron",
        "born": 1941
      }
    },
    "m.title": "You've Got Mail"
  },
  {
    "p": {
      "identity": 2350,
      "labels": [
        "Person"
      ],
      "properties": {
        "name": "Nora Ephron",
        "born": 1941
      }
    },
    "m.title": "Sleepless in Seattle"
  },
  {
    "p": {
      "identity": 2357,
      "labels": [
        "Person"
      ],
      "properties": {
        "name": "John Patrick Stanley",
        "born": 1950
      }
    },
    "m.title": "Joe Versus the Volcano"
  },
  {
    "p": {
      "identity": 2350,
      "labels": [
        "Person"
      ],
      "properties": {
        "name": "Nora Ephron",
        "born": 1941
      }
    },
    "m.title": "When Harry Met Sally"
  },
  {
    "p": {
      "identity": 2305,
      "labels": [
        "Person"
      ],
      "properties": {
        "name": "Rob Reiner",
        "born": 1947
      }
    },
    "m.title": "When Harry Met Sally"
  },
  {
    "p": {
      "identity": 2349,
      "labels": [
        "Person"
      ],
      "properties": {
        "name": "Tom Hanks",
        "born": 1956
      }
    },
    "m.title": "That Thing You Do"
  },
  {
    "p": {
      "identity": 2369,
      "labels": [
        "Person"
      ],
      "properties": {
        "name": "Howard Deutch",
        "born": 1950
      }
    },
    "m.title": "The Replacements"
  },
  {
    "p": {
      "identity": 2337,
      "labels": [
        "Person"
      ],
      "properties": {
        "name": "Werner Herzog",
        "born": 1942
      }
    },
    "m.title": "RescueDawn"
  },
  {
    "p": {
      "identity": 2374,
      "labels": [
        "Person"
      ],
      "properties": {
        "name": "Mike Nichols",
        "born": 1931
      }
    },
    "m.title": "The Birdcage"
  },
  {
    "p": {
      "identity": 2377,
      "labels": [
        "Person"
      ],
      "properties": {
        "name": "Clint Eastwood",
        "born": 1930
      }
    },
    "m.title": "Unforgiven"
  },
  {
    "p": {
      "identity": 2382,
      "labels": [
        "Person"
      ],
      "properties": {
        "name": "Robert Longo",
        "born": 1953
      }
    },
    "m.title": "Johnny Mnemonic"
  },
  {
    "p": {
      "identity": 2283,
      "labels": [
        "Person"
      ],
      "properties": {
        "name": "Lilly Wachowski",
        "born": 1967
      }
    },
    "m.title": "Cloud Atlas"
  },
  {
    "p": {
      "identity": 2386,
      "labels": [
        "Person"
      ],
      "properties": {
        "name": "Tom Tykwer",
        "born": 1965
      }
    },
    "m.title": "Cloud Atlas"
  },
  {
    "p": {
      "identity": 2284,
      "labels": [
        "Person"
      ],
      "properties": {
        "name": "Lana Wachowski",
        "born": 1965
      }
    },
    "m.title": "Cloud Atlas"
  },
  {
    "p": {
      "identity": 2387,
      "labels": [
        "Person"
      ],
      "properties": {
        "name": "David Mitchell",
        "born": 1969
      }
    },
    "m.title": "Cloud Atlas"
  },
  {
    "p": {
      "identity": 2393,
      "labels": [
        "Person"
      ],
      "properties": {
        "name": "Ron Howard",
        "born": 1954
      }
    },
    "m.title": "The Da Vinci Code"
  },
  {
    "p": {
      "identity": 2284,
      "labels": [
        "Person"
      ],
      "properties": {
        "name": "Lana Wachowski",
        "born": 1965
      }
    },
    "m.title": "V for Vendetta"
  },
  {
    "p": {
      "identity": 2283,
      "labels": [
        "Person"
      ],
      "properties": {
        "name": "Lilly Wachowski",
        "born": 1967
      }
    },
    "m.title": "V for Vendetta"
  },
  {
    "p": {
      "identity": 2303,
      "labels": [
        "Person"
      ],
      "properties": {
        "name": "James Marshall",
        "born": 1967
      }
    },
    "m.title": "V for Vendetta"
  },
  {
    "p": {
      "identity": 2283,
      "labels": [
        "Person"
      ],
      "properties": {
        "name": "Lilly Wachowski",
        "born": 1967
      }
    },
    "m.title": "Speed Racer"
  },
  {
    "p": {
      "identity": 2284,
      "labels": [
        "Person"
      ],
      "properties": {
        "name": "Lana Wachowski",
        "born": 1965
      }
    },
    "m.title": "Speed Racer"
  },
  {
    "p": {
      "identity": 2303,
      "labels": [
        "Person"
      ],
      "properties": {
        "name": "James Marshall",
        "born": 1967
      }
    },
    "m.title": "Ninja Assassin"
  },
  {
    "p": {
      "identity": 2414,
      "labels": [
        "Person"
      ],
      "properties": {
        "name": "Frank Darabont",
        "born": 1959
      }
    },
    "m.title": "The Green Mile"
  },
  {
    "p": {
      "identity": 2393,
      "labels": [
        "Person"
      ],
      "properties": {
        "name": "Ron Howard",
        "born": 1954
      }
    },
    "m.title": "Frost/Nixon"
  },
  {
    "p": {
      "identity": 2420,
      "labels": [
        "Person"
      ],
      "properties": {
        "name": "Danny DeVito",
        "born": 1944
      }
    },
    "m.title": "Hoffa"
  },
  {
    "p": {
      "identity": 2393,
      "labels": [
        "Person"
      ],
      "properties": {
        "name": "Ron Howard",
        "born": 1954
      }
    },
    "m.title": "Apollo 13"
  },
  {
    "p": {
      "identity": 2427,
      "labels": [
        "Person"
      ],
      "properties": {
        "name": "Jan de Bont",
        "born": 1943
      }
    },
    "m.title": "Twister"
  },
  {
    "p": {
      "identity": 2429,
      "labels": [
        "Person"
      ],
      "properties": {
        "name": "Robert Zemeckis",
        "born": 1951
      }
    },
    "m.title": "Cast Away"
  },
  {
    "p": {
      "identity": 2431,
      "labels": [
        "Person"
      ],
      "properties": {
        "name": "Milos Forman",
        "born": 1932
      }
    },
    "m.title": "One Flew Over the Cuckoo's Nest"
  },
  {
    "p": {
      "identity": 2434,
      "labels": [
        "Person"
      ],
      "properties": {
        "name": "Nancy Meyers",
        "born": 1949
      }
    },
    "m.title": "Something's Gotta Give"
  },
  {
    "p": {
      "identity": 2436,
      "labels": [
        "Person"
      ],
      "properties": {
        "name": "Chris Columbus",
        "born": 1958
      }
    },
    "m.title": "Bicentennial Man"
  },
  {
    "p": {
      "identity": 2374,
      "labels": [
        "Person"
      ],
      "properties": {
        "name": "Mike Nichols",
        "born": 1931
      }
    },
    "m.title": "Charlie Wilson's War"
  },
  {
    "p": {
      "identity": 2429,
      "labels": [
        "Person"
      ],
      "properties": {
        "name": "Robert Zemeckis",
        "born": 1951
      }
    },
    "m.title": "The Polar Express"
  },
  {
    "p": {
      "identity": 2444,
      "labels": [
        "Person"
      ],
      "properties": {
        "name": "Penny Marshall",
        "born": 1943
      }
    },
    "m.title": "A League of Their Own"
  }
]